<?xml version="1.0" standalone="no"?>
<!DOCTYPE svg PUBLIC "-//W3C//DTD SVG 1.1//EN" "http://www.w3.org/Graphics/SVG/1.1/DTD/svg11.dtd" >
<!--
2017-8-28: Created with FontForge (http://fontforge.org)
-->
<svg xmlns="http://www.w3.org/2000/svg" xmlns:xlink="http://www.w3.org/1999/xlink" version="1.1">
<metadata>
Created by FontForge 20160405 at Mon Aug 28 16:37:21 2017
 By Apache
Copyright (c) 2017, Apache
</metadata>
<defs>
<font id="Flaticon" horiz-adv-x="512" >
  <font-face 
    font-family="Flaticon"
    font-weight="400"
    font-stretch="normal"
    units-per-em="512"
    panose-1="2 0 5 3 0 0 0 0 0 0"
    ascent="448"
    descent="-64"
    bbox="-0.000976562 -64.001 512.008 448"
    underline-thickness="25.6"
    underline-position="-51.2"
    unicode-range="U+0020-F10B"
  />
    <missing-glyph />
    <glyph glyph-name="space" unicode=" " horiz-adv-x="200" 
 />
    <glyph glyph-name="uniF10B" unicode="&#xf10b;" 
d="M164.494 306.383c4.51172 0 8.16992 -3.6582 8.16992 -8.16992v-5.44727c0 -4.51172 -3.6582 -8.16992 -8.16992 -8.16992c-3.55762 0 -6.58398 2.27441 -7.70508 5.44727h-14.082c-4.51172 0 -8.16992 3.6582 -8.16992 8.16992s3.6582 8.16992 8.16992 8.16992h21.7871z
M244.017 306.383c4.5127 0 8.16992 -3.6582 8.16992 -8.16992s-3.65723 -8.16992 -8.16992 -8.16992h-14.082c-1.12012 -3.17383 -4.14648 -5.44727 -7.7041 -5.44727c-4.5127 0 -8.1709 3.6582 -8.1709 8.16992v5.44727c0 4.51172 3.6582 8.16992 8.1709 8.16992h21.7861z
M214.073 256.89c4.25098 -1.51172 6.47266 -6.18262 4.96191 -10.4346c-3.85352 -10.8379 -14.1699 -18.1191 -25.6729 -18.1191s-21.8203 7.28125 -25.6729 18.1191c-1.51172 4.25195 0.709961 8.92285 4.96191 10.4346
c4.25098 1.50977 8.92285 -0.709961 10.4346 -4.96191c1.54199 -4.33789 5.67188 -7.25195 10.2764 -7.25195c4.60352 0 8.73242 2.91406 10.2754 7.25195c1.51172 4.25195 6.18555 6.47168 10.4355 4.96191zM97.0078 -14.9785c0 4.51172 3.6582 8.16992 8.16992 8.16992
c4.5127 0 8.16992 -3.6582 8.16992 -8.16992c0 -4.5127 -3.65723 -8.1709 -8.16992 -8.1709c-4.51172 0 -8.16992 3.6582 -8.16992 8.1709zM64.3271 17.7021c0 4.51172 3.65723 8.16992 8.16992 8.16992c4.51172 0 8.16992 -3.6582 8.16992 -8.16992
c0 -4.5127 -3.6582 -8.16992 -8.16992 -8.16992c-4.5127 0 -8.16992 3.65723 -8.16992 8.16992zM407.421 271.523c57.666 0 104.579 -46.9287 104.579 -104.612v-126.299c0 -57.6836 -46.9131 -104.612 -104.581 -104.613c-12.3125 0 -24.1328 2.14551 -35.1377 6.08105
c-40.4316 14.4727 -69.4404 53.1738 -69.4404 98.5312v42.6738c-6.97949 5.49707 -14.3438 10.4375 -22.0195 14.7939c-21.1201 -26.5811 -53.2881 -42.249 -87.4609 -42.249c-34.1592 0 -66.3135 15.6562 -87.4346 42.2158
c-4.75098 -2.71191 -9.36426 -5.63867 -13.8291 -8.76367c24.2295 -31.3203 61.5186 -49.793 101.265 -49.793c29.335 0 56.9502 9.69629 79.8643 28.043c3.52246 2.81934 8.66504 2.25098 11.4844 -1.27148c2.82031 -3.52148 2.25098 -8.66406 -1.27051 -11.4834
c-25.4727 -20.3975 -57.4639 -31.6289 -90.0781 -31.6289c-44.8369 0 -86.8945 20.8369 -114.205 56.1572c-38.3945 -32.4971 -62.8164 -81.0137 -62.8164 -135.136c0 -4.51172 -3.6582 -8.16992 -8.16992 -8.16992s-8.16992 3.6582 -8.16992 8.16992
c0 61.9727 29.3105 117.223 74.79 152.633c0.382812 0.396484 0.810547 0.760742 1.28418 1.08105c0.195312 0.133789 0.397461 0.25293 0.601562 0.367188c8.42773 6.39844 17.3965 12.1191 26.8203 17.0869c0.0195312 0.0136719 0.0371094 0.03125 0.0576172 0.0449219
c0.560547 0.388672 1.1543 0.686523 1.76367 0.916992c26.4209 13.5693 56.3525 21.2334 88.043 21.2334c30.8037 0 61.0723 -7.4082 88.1943 -21.2881c0.500977 -0.202148 0.988281 -0.457031 1.45605 -0.764648c6.82715 -3.56836 13.4541 -7.54102 19.8301 -11.9189
v51.2354c-3.76367 -0.612305 -7.58594 -0.923828 -11.4375 -0.923828h-196.085c-39.043 0 -70.8086 31.7646 -70.8086 70.8086c0 5.33398 0.615234 10.709 1.83105 15.9746l21.0615 91.2754c7.49219 32.4404 25.9941 61.8945 52.0977 82.9365
c26.5029 21.3662 59.8379 33.1318 93.8623 33.1318c34.0234 0 67.3574 -11.7656 93.8604 -33.1328c26.1045 -21.042 44.6055 -50.4951 52.0977 -82.9346l17.0205 -73.7666c15.1162 8.5 32.54 13.3574 51.0801 13.3574zM193.362 72.1699
c28.0371 0 54.4902 12.3604 72.5166 33.4668c-22.6562 10.1611 -47.3896 15.5547 -72.5166 15.5547c-25.8271 0 -50.377 -5.5625 -72.5225 -15.5479c18.0264 -21.1113 44.4824 -33.4736 72.5225 -33.4736zM291.403 170.212c3.90723 0 7.77051 0.419922 11.5439 1.23535
c1.33008 31.0205 16.2256 58.5811 38.8926 76.8857l-18.4414 79.9258c-13.8379 59.9141 -68.5254 103.401 -130.036 103.401c-61.5117 0 -116.199 -43.4883 -130.037 -103.403l-21.0615 -91.2744c-0.9375 -4.0625 -1.41309 -8.20117 -1.41309 -12.3018
c0 -30.0332 24.4346 -54.4678 54.4688 -54.4678h38.4404c-34.3955 20.4219 -57.5049 57.9434 -57.5049 100.766v27.2344c0 12.0254 1.81738 23.877 5.40039 35.2285c1.04199 3.2998 4.04883 5.58496 7.50684 5.70605c57.5635 2.00684 111.815 22.0029 156.89 57.8281
c2.71094 2.15625 6.48828 2.36621 9.42285 0.526367c34.4355 -21.5859 54.9932 -58.7041 54.9932 -99.2891v-27.2344c0 -42.8223 -23.1074 -80.3438 -57.5049 -100.766v-0.000976562h38.4404zM193.362 170.213c55.5625 0 100.766 45.2031 100.766 100.765v27.2344
c0 33.0312 -15.8262 63.3936 -42.6172 82.3066c-45.3008 -34.5137 -98.9375 -54.2822 -155.819 -57.4336c-2.05664 -8.08398 -3.0957 -16.4258 -3.0957 -24.8721v-27.2344c0 -55.5625 45.2031 -100.766 100.767 -100.766zM495.66 40.6123v126.299
c0 48.6738 -39.583 88.2715 -88.2383 88.2715c-18.9414 0 -36.4932 -6.02148 -50.8848 -16.2236c-0.495117 -0.458008 -1.05176 -0.855469 -1.66016 -1.18164c-21.6416 -16.1025 -35.6934 -41.8721 -35.6934 -70.8662v-1.62109v-124.678
c0 -37.1367 23.0537 -68.9658 55.5859 -81.9814c33.334 13.3516 55.5293 45.9023 55.5293 81.9473v27.0439c0 4.51172 3.6582 8.16992 8.16992 8.16992c4.5127 0 8.16992 -3.6582 8.16992 -8.16992v-27.0439c0 -35.8594 -18.5312 -68.7969 -47.8447 -87.8115
c2.83984 -0.276367 5.71582 -0.426758 8.62793 -0.426758c48.6553 0 88.2383 39.5986 88.2383 88.2725zM387.268 175.004c4.5127 0 8.1709 -3.6582 8.1709 -8.16992v-5.44727c0 -4.51172 -3.6582 -8.16992 -8.1709 -8.16992c-3.55664 0 -6.58398 2.27441 -7.7041 5.44727
h-3.18945c-4.51172 0 -8.16992 3.6582 -8.16992 8.16992s3.6582 8.16992 8.16992 8.16992h10.8936zM438.468 175.004c4.5127 0 8.16992 -3.6582 8.16992 -8.16992s-3.65723 -8.16992 -8.16992 -8.16992h-3.18848c-1.12109 -3.17383 -4.14746 -5.44727 -7.70508 -5.44727
c-4.5127 0 -8.16992 3.6582 -8.16992 8.16992v5.44727c0 4.51172 3.65723 8.16992 8.16992 8.16992h10.8936zM407.421 238.731c39.6455 0 71.8984 -32.2529 71.8984 -71.8984v-10.8936c0 -39.6455 -32.2529 -71.8984 -71.8984 -71.8984
c-39.6445 0 -71.8975 32.2529 -71.8975 71.8984v10.8936c0 39.6445 32.2529 71.8984 71.8975 71.8984zM462.979 155.94v10.8936c0 30.6348 -24.9219 55.5566 -55.5566 55.5566s-55.5566 -24.9219 -55.5566 -55.5566v-10.8936c0 -30.6357 24.9219 -55.5576 55.5566 -55.5576
s55.5566 24.9219 55.5566 55.5576z" />
    <glyph glyph-name="uniF109" unicode="&#xf109;" 
d="M352.316 410.238c9.36328 -13.9902 14.3135 -30.3174 14.3135 -47.2148c0 -46.8564 -38.1211 -84.9775 -84.9766 -84.9775c-46.8564 0 -84.9775 38.1211 -84.9775 84.9775c0 46.8555 38.1211 84.9766 84.9775 84.9766c16.8975 0 33.2236 -4.94922 47.2129 -14.3105
c3.67871 -2.46387 4.66602 -7.44336 2.20312 -11.1221c-2.46289 -3.67969 -7.44238 -4.66602 -11.1221 -2.20312c-11.3408 7.58984 -24.583 11.6025 -38.2939 11.6025c-38.0166 0 -68.9443 -30.9277 -68.9443 -68.9434c0 -38.0166 30.9277 -68.9443 68.9443 -68.9443
c38.0156 0 68.9434 30.9287 68.9434 68.9443c0 13.7109 -4.0127 26.9531 -11.6045 38.2969c-2.46289 3.67871 -1.47656 8.65723 2.20312 11.1211c3.67773 2.46387 8.65625 1.47656 11.1211 -2.20312zM296.618 371.04c10.3135 0 18.7061 -8.3916 18.707 -18.7061v-17.1025
c0 -10.3145 -8.39258 -18.7061 -18.7061 -18.7061h-6.94824v-9.08594c0 -4.42871 -3.58887 -8.01758 -8.0166 -8.01758c-4.42871 0 -8.01758 3.58984 -8.01758 8.01758v9.08594h-17.6367c-4.42773 0 -8.0166 3.58887 -8.0166 8.0166s3.58984 8.0166 8.0166 8.0166h17.6357
v22.4473h-6.94727c-10.3145 0 -18.7061 8.39258 -18.7061 18.7061v17.1025c0 10.3135 8.3916 18.7051 18.7061 18.7051h6.94727v9.08691c0 4.42773 3.58887 8.0166 8.01758 8.0166c4.42773 0 8.0166 -3.58984 8.0166 -8.0166v-9.08691h17.6367
c4.42871 0 8.01758 -3.58984 8.01758 -8.0166c0 -4.42773 -3.58984 -8.0166 -8.01758 -8.0166h-17.6367v-22.4463h6.94824zM273.637 371.04v22.4463h-6.94727c-1.47363 0 -2.67285 -1.19922 -2.67285 -2.67188v-17.1025c0 -1.47266 1.19922 -2.67188 2.67285 -2.67188
h6.94727zM299.29 335.232v17.1016c0 1.47266 -1.19922 2.67188 -2.67188 2.67188h-6.94824v-22.4463h6.94824c1.47266 0 2.67188 1.19922 2.67188 2.67285zM511.957 141.524c0.0283203 -0.274414 0.0429688 -0.551758 0.0439453 -0.831055v-196.677
c0 -4.42773 -3.58984 -8.0166 -8.0166 -8.0166h-495.968c-4.42773 0 -8.0166 3.58887 -8.01758 8.01562v34.2051c0 4.42969 3.58984 8.01758 8.0166 8.01758c4.42871 0 8.01758 -3.58984 8.01758 -8.01758v-26.1875h60.9268v128.802c0 4.42773 3.58984 8.0166 8.0166 8.0166
h85.5127c4.42773 0 8.0166 -3.58984 8.0166 -8.0166v-128.802h60.9268v180.643h-223.398v-111.699c0 -4.42773 -3.58984 -8.0166 -8.01758 -8.0166s-8.0166 3.58984 -8.0166 8.0166v119.717c0 2.30762 1.04688 4.58301 2.79883 6.08691l119.717 102.613
c1.41895 1.21777 3.35254 1.93066 5.21777 1.93066h256.533c1.91406 0 3.76465 -0.685547 5.21777 -1.93066l119.716 -102.612c1.53711 -1.31934 2.54492 -3.24316 2.75684 -5.25684zM162.472 -47.9668v120.785h-69.4775v-120.785h69.4775zM29.6865 148.71h196.091
l-98.0449 84.0391zM495.967 -47.9668v180.643h-43.29c-4.42773 0 -8.0166 3.58887 -8.0166 8.01758c0 4.42773 3.58984 8.0166 8.0166 8.0166h29.6348l-101.01 86.5801h-231.897l101.01 -86.5801h159.507c4.42773 0 8.01758 -3.58887 8.01758 -8.0166
c0 -4.42871 -3.59082 -8.01758 -8.01758 -8.01758h-154.455v-180.643h240.501zM375.716 217.119c4.42676 0 8.01758 -3.58887 8.01758 -8.01758c0 -4.42773 -3.59082 -8.0166 -8.01758 -8.0166h-162.472c-4.42773 0 -8.01758 3.58887 -8.01758 8.0166
c0 4.42871 3.59082 8.01758 8.01758 8.01758h162.472zM350.063 88.8516c4.42676 0 8.01562 -3.58984 8.0166 -8.0166v-85.5107c0 -4.42773 -3.58984 -8.01758 -8.0166 -8.01758h-51.3076c-4.42773 0 -8.0166 3.59082 -8.0166 8.01758v85.5107
c0 4.42773 3.58984 8.0166 8.0166 8.0166h51.3076zM342.046 3.33984v69.4785h-35.2725v-69.4785h35.2725zM452.676 88.8516c4.42773 0 8.01758 -3.58984 8.01855 -8.0166v-85.5107c0 -4.42773 -3.59082 -8.01758 -8.01758 -8.01758h-51.3066
c-4.42773 0 -8.01758 3.59082 -8.01758 8.01758v85.5107c0 4.42773 3.59082 8.0166 8.01758 8.0166h51.3057zM444.66 3.33984v69.4785h-35.2734v-69.4785h35.2734zM110.63 20.4434c4.42773 0 8.01758 -3.59082 8.01758 -8.01758v-8.55078
c0 -4.42773 -3.58984 -8.0166 -8.01758 -8.0166s-8.0166 3.58984 -8.0166 8.0166v8.55078c0 4.42773 3.58984 8.01758 8.0166 8.01758zM153.386 174.363c4.42871 0 8.01758 -3.58887 8.01758 -8.01758c0 -4.42773 -3.58984 -8.0166 -8.01758 -8.0166h-51.3066
c-4.42773 0 -8.01758 3.58887 -8.01758 8.0166c0 4.42871 3.59082 8.01758 8.01758 8.01758h51.3066zM144.835 200.017c4.42676 0 8.0166 -3.58887 8.0166 -8.0166s-3.58984 -8.0166 -8.0166 -8.0166h-34.2051c-4.42773 0 -8.0166 3.58887 -8.0166 8.0166
s3.58984 8.0166 8.0166 8.0166h34.2051z" />
    <glyph glyph-name="uniF10A" unicode="&#xf10a;" 
d="M290.134 193.032c0 -18.8242 -15.3096 -34.1328 -34.1338 -34.1328c-15.8545 0 -29.1074 10.9141 -32.9219 25.5996h-60.9443c-4.71094 0 -8.53418 3.81445 -8.53418 8.5332c0 4.71973 3.82324 8.5332 8.53418 8.5332h60.9443
c3.10645 11.9385 12.4502 21.2822 24.3887 24.3887v86.5449c0 4.71875 3.82324 8.5332 8.5332 8.5332s8.5332 -3.81445 8.5332 -8.5332v-86.5449c14.6777 -3.81445 25.6006 -17.0576 25.6006 -32.9219zM256 175.966c9.41211 0 17.0664 7.6543 17.0664 17.0664
s-7.6543 17.0674 -17.0664 17.0674s-17.0664 -7.65527 -17.0664 -17.0674s7.6543 -17.0664 17.0664 -17.0664zM256 363.699c-4.70996 0 -8.5332 3.81445 -8.5332 8.5332v8.5332c0 4.71875 3.82324 8.5332 8.5332 8.5332s8.5332 -3.81445 8.5332 -8.5332v-8.5332
c0 -4.71875 -3.82324 -8.5332 -8.5332 -8.5332zM247.467 13.833c0 4.71875 3.82324 8.5332 8.5332 8.5332s8.5332 -3.81445 8.5332 -8.5332v-8.53418c0 -4.71875 -3.82324 -8.5332 -8.5332 -8.5332s-8.5332 3.81445 -8.5332 8.5332v8.53418zM443.733 184.499h-8.5332
c-4.71094 0 -8.5332 3.81445 -8.5332 8.5332c0 4.71973 3.82227 8.5332 8.5332 8.5332h8.5332c4.70996 0 8.5332 -3.81348 8.5332 -8.5332c0 -4.71875 -3.82324 -8.5332 -8.5332 -8.5332zM68.2666 201.565h8.5332c4.71094 0 8.5332 -3.81348 8.5332 -8.5332
c0 -4.71875 -3.82227 -8.5332 -8.5332 -8.5332h-8.5332c-4.70996 0 -8.5332 3.81445 -8.5332 8.5332c0 4.71973 3.82324 8.5332 8.5332 8.5332zM382.712 311.219c-2.18457 0 -4.36914 0.828125 -6.0332 2.50098c-3.33691 3.33594 -3.33691 8.72949 0 12.0654l6.0332 6.0332
c3.33594 3.33691 8.72949 3.33691 12.0654 0c3.33691 -3.33594 3.33691 -8.72949 0 -12.0654l-6.0332 -6.0332c-1.66406 -1.66406 -3.84766 -2.50098 -6.03223 -2.50098zM123.256 72.3545c3.32715 3.33594 8.72949 3.33594 12.0654 0
c3.33691 -3.33691 3.33691 -8.72949 0 -12.0664l-6.0332 -6.0332c-1.66309 -1.66406 -3.84766 -2.5 -6.03223 -2.5s-4.36914 0.835938 -6.0332 2.5c-3.33691 3.33691 -3.33691 8.72949 0 12.0664zM135.321 325.785c3.33691 -3.33594 3.33691 -8.7373 0 -12.0654
c-1.66406 -1.66406 -3.84863 -2.50098 -6.0332 -2.50098s-4.36816 0.836914 -6.03223 2.50098l-6.0332 6.0332c-3.33691 3.33594 -3.33691 8.72949 0 12.0654c3.33594 3.33691 8.72949 3.33691 12.0654 0zM256 448c141.158 0 256 -114.842 256 -256
c0 -30.5322 -5.33301 -60.4248 -15.8633 -88.8662c-1.63867 -4.41992 -6.54492 -6.69824 -10.9658 -5.03418c-4.41992 1.62988 -6.67285 6.53613 -5.04297 10.9648c9.82227 26.5391 14.8057 54.4346 14.8057 82.9355c0 131.746 -107.188 238.934 -238.934 238.934
s-238.934 -107.188 -238.934 -238.934s107.188 -238.934 238.934 -238.934c28.4844 0 56.3887 4.9834 82.9443 14.7969c4.42871 1.64746 9.32617 -0.605469 10.9648 -5.04297c1.62988 -4.41211 -0.623047 -9.32715 -5.04297 -10.957
c-28.459 -10.5303 -58.3506 -15.8633 -88.8662 -15.8633c-141.158 0 -256 114.842 -256 256s114.842 256 256 256zM426.667 97.2715c19.4473 -3.96777 34.1328 -21.2051 34.1328 -41.8047c0 -4.71875 -3.82227 -8.5332 -8.5332 -8.5332
c-4.70996 0 -8.5332 3.81445 -8.5332 8.5332c0 11.1104 -7.15918 20.4971 -17.0664 24.0293v-46.4043l19.0205 -14.8047c6.62988 -5.14551 10.9229 -12.8857 11.8018 -21.2314c0.853516 -8.16602 -1.55371 -16.0508 -6.76758 -22.2285
c-6.2627 -7.39844 -14.7451 -12.3398 -24.0547 -14.2344v-7.52637c0 -4.71875 -3.82324 -8.5332 -8.5332 -8.5332c-4.71094 0 -8.53418 3.81445 -8.53418 8.5332v7.50098c-19.4473 3.96777 -34.1328 21.2051 -34.1328 41.8047c0 4.71875 3.82324 8.5332 8.5332 8.5332
s8.5332 -3.81445 8.5332 -8.5332c0 -11.1104 7.15918 -20.4971 17.0664 -24.0293v46.4043l-19.0205 14.7881c-6.62988 5.1543 -10.9307 12.9023 -11.8018 21.2559c-0.853516 8.16699 1.56152 16.0518 6.77539 22.2129c6.25488 7.39844 14.7373 12.3389 24.0469 14.2334
v9.42969c0 4.71875 3.82324 8.5332 8.53418 8.5332c4.70996 0 8.5332 -3.81445 8.5332 -8.5332v-9.39551zM435.209 4.82129l-8.54199 6.65625v-33.0928c4.21484 1.50195 8.05469 3.95996 11.0244 7.4668c2.18457 2.57715 3.19141 5.93066 2.8252 9.42969
c-0.392578 3.7373 -2.33008 7.22754 -5.30762 9.54004zM401.059 53.0088l8.54102 -6.63867v33.084c-4.21484 -1.50195 -8.05469 -3.95996 -11.0244 -7.4668c-2.18457 -2.58594 -3.18359 -5.93066 -2.8252 -9.4209c0.392578 -3.74609 2.32129 -7.23633 5.30859 -9.55762z" />
    <glyph glyph-name="uniF102" unicode="&#xf102;" 
d="M381.664 448c20.5361 0 37.2451 -16.7002 37.2441 -37.2178v-353.765v-93.0088c0 -15.4443 -12.5361 -28.0088 -27.9453 -28.0088h-269.927c-15.4092 0 -27.9453 12.5635 -27.9453 28.0088v93.0088v353.765c0 20.5176 16.709 37.2178 37.2451 37.2178h251.328z
M400.291 -35.9912v83.7002h-288.582v-83.7002c0 -5.18164 4.18164 -9.39062 9.32715 -9.39062h269.928c5.14551 0 9.32715 4.20898 9.32715 9.39062zM400.291 66.3271h-0.000976562v344.455c0 10.2549 -8.35449 18.5996 -18.627 18.5996h-251.327
c-10.2725 0 -18.627 -8.34473 -18.627 -18.5996v-344.455h288.582zM260.655 29.0908c15.3994 0 27.9268 -12.5264 27.9268 -27.9268s-12.5273 -27.9268 -27.9268 -27.9268c-15.4004 0 -27.9277 12.5264 -27.9277 27.9268s12.5273 27.9268 27.9277 27.9268zM260.655 -8.14453
c5.13574 0 9.30859 4.17285 9.30859 9.30859s-4.17285 9.30859 -9.30859 9.30859c-5.13672 0 -9.30957 -4.17285 -9.30957 -9.30859s4.17285 -9.30859 9.30957 -9.30859zM260.655 159.418c30.7998 0 55.8535 -25.0537 55.8535 -55.8535
c0 -5.14551 -4.16406 -9.30957 -9.30859 -9.30957h-93.0908c-5.14551 0 -9.30957 4.16406 -9.30957 9.30957c0 30.7998 25.0557 55.8535 55.8555 55.8535zM224.6 112.873h72.1104c-4.13672 16.0449 -18.7363 27.9268 -36.0547 27.9268
c-17.3193 0 -31.9189 -11.8818 -36.0557 -27.9268z" />
    <glyph glyph-name="uniF108" unicode="&#xf108;" 
d="M99.6475 341.306l412.344 0.101562v-204.866c0 -23.4619 -19.085 -42.5469 -42.5547 -42.5469l-34.3311 -0.0078125v-0.00878906l-92.6094 -0.0175781l-60.957 -0.0166016v-0.00878906l-92.5068 -0.0341797l-52.2812 -0.0166016h-0.511719h-6.66309
c-13.8809 0 -25.7734 -10.0762 -27.0703 -22.9502c-0.742188 -7.29395 1.56934 -14.3066 6.49219 -19.7588c4.87988 -5.38281 11.791 -8.47168 18.9746 -8.47168h20.04c7.04688 19.8525 25.9609 34.126 48.2031 34.126c22.2412 0 41.1553 -14.2734 48.2031 -34.126h99.8184
c7.04688 19.8525 25.9609 34.126 48.2021 34.126c22.2422 0 41.1562 -14.2734 48.2031 -34.126h37.1123c4.71777 0 8.53125 -3.81348 8.53125 -8.53125s-3.81348 -8.53125 -8.53125 -8.53125h-34.126c0 -28.2314 -22.958 -51.1895 -51.1895 -51.1895
c-28.2305 0 -51.1885 22.958 -51.1885 51.1895h-93.8467c0 -28.2314 -22.958 -51.1895 -51.1885 -51.1895s-51.1895 22.958 -51.1895 51.1895h-17.0625c-11.9951 0 -23.5303 5.13574 -31.626 14.0938c-8.08789 8.92383 -12.0293 20.9277 -10.8184 32.9141
c2.07324 20.3994 19.6221 36.5918 40.6777 38.1787l-11.4492 59.8486h-0.0078125l-8.90723 46.5986l-21.832 114.101v0v0.0253906l-1.89355 9.90527h0.238281l-4.26562 25.5938h-11.04c-3.81348 -14.6738 -17.0537 -25.5938 -32.9141 -25.5938
c-18.8203 0 -34.126 15.3047 -34.126 34.126c0 18.8203 15.3057 34.126 34.126 34.126c15.8604 0 29.1006 -10.9209 32.9141 -25.5947h25.5098zM34.126 358.368c9.41016 0 17.0625 7.65234 17.0625 17.0635c0 9.41016 -7.65234 17.0625 -17.0625 17.0625
s-17.0635 -7.65234 -17.0635 -17.0625c0 -9.41113 7.65332 -17.0635 17.0635 -17.0635zM392.448 59.7666c-18.8203 0 -34.126 -15.3057 -34.126 -34.126s15.3057 -34.126 34.126 -34.126s34.126 15.3057 34.126 34.126s-15.3057 34.126 -34.126 34.126zM196.225 59.7666
c-18.8213 0 -34.126 -15.3057 -34.126 -34.126s15.3047 -34.126 34.126 -34.126c18.8203 0 34.125 15.3057 34.125 34.126s-15.3047 34.126 -34.125 34.126zM494.938 264.521v59.832l-59.832 -0.0175781v-59.8145h59.832zM358.322 111.023l59.7207 0.0166016v59.627
h-59.7207v-59.6436zM358.322 187.738h59.7207v59.7207h-59.7207v-59.7207zM204.756 110.98l59.7197 0.0175781v59.6777h-59.7197v-59.6953zM204.756 187.738h59.7197v59.7207h-59.7197v-59.7207zM117.436 247.459l11.4326 -59.7207h58.8242v59.7207h-70.2568z
M418.043 264.521v59.7207h-59.7207v-59.7207h59.7207zM341.26 264.521v59.7891l-59.7207 -0.0166016v-59.7725h59.7207zM264.476 324.242h-59.7197v-59.7207h59.7197v59.7207zM281.539 247.459v-59.7207h59.7207v59.7207h-59.7207zM435.105 247.459v-59.7207h59.7207
v59.7207h-59.7207zM187.692 324.26l-84.9561 -0.0263672l11.4316 -59.7197h73.5244v59.7461zM132.127 170.676l11.4326 -59.7119l44.1328 0.0166016v59.6953h-55.5654zM281.539 170.676v-59.6689l59.7207 0.0166016v59.6523h-59.7207zM469.437 111.058
c14.0596 0 25.501 11.4316 25.501 25.4922v34.126h-59.832v-59.627z" />
    <glyph glyph-name="uniF101" unicode="&#xf101;" 
d="M375.466 29.8672c0 -14.5068 -11.0928 -25.6006 -25.6006 -25.6006v-42.666c0 -14.5068 -11.0928 -25.5996 -25.5996 -25.5996h-17.0664c-14.5068 0 -25.5996 11.0928 -25.5996 25.5996v42.666h-187.734v-42.666c0 -14.5068 -11.0928 -25.5996 -25.5996 -25.5996
h-17.0664c-14.5068 0 -25.5996 11.0928 -25.5996 25.5996v42.666c-14.5068 0 -25.5996 11.0938 -25.5996 25.6006v93.8662c0 14.5068 11.0928 25.5996 25.5996 25.5996h4.2666c3.41309 0 6.82617 2.55957 8.5332 5.97266l29.8662 104.106v0.853516
c6.82715 15.3594 22.1875 25.5996 39.2539 25.5996h160.427c17.0664 0 32.4268 -10.2402 39.2539 -25.5996v-0.853516l29.8662 -104.106c0.852539 -3.41309 4.26562 -5.97266 8.5332 -5.97266h4.2666c14.5068 0 25.5996 -11.0928 25.5996 -25.5996v-93.8662z
M76.7998 -38.3994h0.000976562v42.666h-34.1338v-42.666c0 -5.12012 3.41309 -8.5332 8.5332 -8.5332h17.0664c5.12012 0 8.5332 3.41309 8.5332 8.5332zM332.8 -38.3994h0.000976562v42.666h-34.1338v-42.666c0 -5.12012 3.41309 -8.5332 8.5332 -8.5332h17.0664
c5.12012 0 8.5332 3.41309 8.5332 8.5332zM358.4 29.8672h-0.000976562v93.8662c0 5.12012 -3.41309 8.5332 -8.5332 8.5332h-4.2666c-11.0928 0 -21.334 7.68066 -24.7471 18.7734l-29.8662 103.254c-4.2666 9.38672 -13.6533 14.5068 -23.04 14.5068h-160.427
c-10.2402 0 -18.7725 -5.97461 -23.04 -14.5068l-29.8662 -103.254c-3.41309 -11.0938 -13.6543 -18.7734 -24.7471 -18.7734h-4.2666c-5.12012 0 -8.5332 -3.41309 -8.5332 -8.5332v-93.8662c0 -5.12012 3.41309 -8.5332 8.5332 -8.5332h8.53418h51.1992h204.801h51.2002
h8.5332c5.12012 0 8.5332 3.41309 8.5332 8.5332zM76.7998 115.2c18.7734 0 34.1338 -15.3594 34.1338 -34.1328c0 -18.7744 -15.3604 -34.1338 -34.1338 -34.1338s-34.1338 15.3594 -34.1338 34.1338c0 18.7734 15.3604 34.1328 34.1338 34.1328zM76.7998 64
c9.38672 0 17.0674 7.67969 17.0674 17.0674c0 9.38672 -7.68066 17.0664 -17.0674 17.0664s-17.0664 -7.67969 -17.0664 -17.0664c0 -9.3877 7.67969 -17.0674 17.0664 -17.0674zM298.667 115.2c18.7725 0 34.1338 -15.3594 34.1338 -34.1328
c0 -18.7744 -15.3604 -34.1338 -34.1338 -34.1338s-34.1338 15.3594 -34.1338 34.1338c0 18.7734 15.3604 34.1328 34.1338 34.1328zM298.667 64c9.38574 0 17.0664 7.67969 17.0664 17.0674c0 9.38672 -7.67969 17.0664 -17.0664 17.0664
s-17.0664 -7.67969 -17.0664 -17.0664c0 -9.3877 7.67969 -17.0674 17.0664 -17.0674zM204.8 72.5342c5.12012 0 8.5332 -3.41406 8.5332 -8.5332c0 -5.12012 -3.41309 -8.53223 -8.5332 -8.53223h-34.1328c-5.12012 0 -8.5332 3.41211 -8.5332 8.53223
s3.41309 8.5332 8.5332 8.5332h34.1328zM221.866 106.667c5.12109 0 8.5332 -3.41309 8.53223 -8.5332c0 -5.12012 -3.41211 -8.5332 -8.53223 -8.5332h-68.2676c-5.12012 0 -8.53223 3.41309 -8.53223 8.5332s3.41211 8.5332 8.53223 8.5332h68.2676zM105.813 149.333
c-5.12012 0 -10.2402 2.56152 -13.6533 6.82715c-3.41309 4.2666 -4.26758 10.2393 -2.56055 15.3594l20.4795 68.2676c2.56055 7.67969 8.53418 11.9463 16.2139 11.9463h123.732c7.67969 0 14.5068 -5.12012 16.2139 -11.9463l20.4805 -68.2676
c1.70703 -5.12012 0.854492 -11.0928 -2.55957 -15.3594c-3.41406 -4.26758 -8.53418 -6.82715 -13.6543 -6.82715h-164.692zM126.293 234.667l-20.4795 -68.2676h164.692l-20.4795 68.2676h-123.733zM503.466 448c5.12012 0 8.53418 -3.41309 8.53418 -8.5332v-145.066
c0 -5.12012 -3.41309 -8.5332 -8.5332 -8.5332h-68.2666v-264.533h17.0664c5.12012 0 8.5332 -3.41309 8.5332 -8.5332v-25.5996h17.0664c5.12012 0 8.5332 -3.41309 8.5332 -8.5332v-34.1328c0 -5.12012 -3.41309 -8.5332 -8.5332 -8.5332h-102.399
c-5.12012 0 -8.5332 3.41309 -8.5332 8.5332v34.1328c0 5.12012 3.41309 8.5332 8.5332 8.5332h17.0664v25.5996c0 5.12012 3.41309 8.5332 8.5332 8.5332h17.0664v264.533h-59.7324c-5.12012 0 -8.5332 3.41309 -8.5332 8.5332v145.066
c0 5.12012 3.41309 8.5332 8.5332 8.5332h145.065zM469.333 -46.9336h0.000976562v17.0674h-17.0674h-51.2002h-17.0664v-17.0674h85.333zM443.733 -12.7998v17.0664h-34.1338v-17.0664h34.1338zM494.934 302.933v128.001h-128.001v-128.001h128.001zM418.133 320
c-5.11914 0 -8.5332 3.41406 -8.5332 8.53418v25.6006v51.2002c0 5.11914 3.41309 8.53223 8.53223 8.53223h17.0674c18.7734 0 34.1338 -15.3594 34.1338 -34.1328c0 -18.7744 -15.3604 -34.1338 -34.1338 -34.1338h-8.5332v-17.0684
c0 -5.11914 -3.41309 -8.53223 -8.5332 -8.53223zM452.266 379.733c0 9.38672 -7.67969 17.0664 -17.0664 17.0664h-8.5332v-34.1338h8.5332c9.38672 0 17.0664 7.67969 17.0664 17.0674z" />
    <glyph glyph-name="uniF107" unicode="&#xf107;" 
d="M221.697 60.1426c-44.4639 7.88086 -85.1104 31.2227 -114.561 65.8105c-30.0303 35.2734 -46.5703 80.2393 -46.5703 126.613c0 107.764 87.6719 195.434 195.434 195.434s195.434 -87.6699 195.434 -195.434c0 -93.8662 -66.6309 -174.421 -158.595 -191.952
c-4.70312 -3.7832 -15.4014 -23.1572 -23.3701 -42.4482c-1.5752 -3.81445 -5.20996 -6.37695 -9.33105 -6.58105c-0.176758 -0.00878906 -0.353516 -0.0126953 -0.529297 -0.0126953c-3.91992 0 -7.54395 2.15723 -9.40527 5.64062
c-10.5088 19.668 -23.5449 39.2529 -28.5059 42.9297zM256 426.667c-95.999 0 -174.101 -78.1016 -174.101 -174.101c0 -85.0781 60.7646 -157.24 144.485 -171.586c6.6377 -1.1377 14.0342 -6.60352 28.5566 -29.585c1.24316 -1.96875 2.44922 -3.9248 3.59863 -5.82227
c0.833008 1.6875 1.70508 3.41602 2.60645 5.15234c12.9854 24.999 20.5312 29.5137 26.7529 30.668c82.3994 15.2451 142.201 87.2334 142.201 171.173c0 95.999 -78.1016 174.101 -174.101 174.101zM343.366 52.0068c49.665 -11.123 77.0166 -30.1543 77.0166 -53.5908
c0 -13.2715 -9.04102 -32.1465 -52.1182 -46.6982c-30.002 -10.1357 -69.6777 -15.7178 -111.721 -15.7178c-42.0566 0 -81.7432 5.58203 -111.75 15.7188c-43.0801 14.5508 -52.123 33.4268 -52.123 46.6982c0 22.1846 24.9004 40.6279 70.1143 51.9316
c5.71582 1.42773 11.5059 -2.0459 12.9355 -7.76074c1.42871 -5.71582 -2.0459 -11.5059 -7.75977 -12.9355c-37.0723 -9.26855 -53.957 -22.6885 -53.957 -31.2354c0 -6.35742 9.85352 -17.1084 37.6182 -26.4873c27.8643 -9.41309 65.126 -14.5967 104.922 -14.5967
c39.7812 0 77.0312 5.18359 104.892 14.5967c27.7637 9.37891 37.6143 20.1299 37.6143 26.4873c0 9.27539 -18.8848 23.4873 -60.3457 32.7725c-5.74707 1.28711 -9.36426 6.99121 -8.07812 12.7393c1.28906 5.74902 6.99707 9.3623 12.7402 8.07812zM161.862 277.614
h-26.6123c-5.88965 0 -10.667 4.77539 -10.667 10.666c0 5.8916 4.77734 10.667 10.667 10.667h26.6123v39.0225c0 5.8916 4.77637 10.667 10.667 10.667h62.0996h49.6729h62.1162c5.89062 0 10.667 -4.77539 10.667 -10.667v-39.0225h26.5957
c5.89062 0 10.667 -4.77539 10.667 -10.667c0 -5.89062 -4.77637 -10.666 -10.667 -10.666h-26.5957v-88.7041c0 -5.8916 -4.77637 -10.667 -10.667 -10.667h-14.1709v-26.5967c0 -5.89062 -4.77637 -10.666 -10.666 -10.666c-5.89062 0 -10.667 4.77539 -10.667 10.666
v26.5967h-102.881v-26.5967c0 -5.89062 -4.77637 -10.666 -10.667 -10.666s-10.666 4.77539 -10.666 10.666v26.5967h-14.1709c-5.89062 0 -10.667 4.77539 -10.667 10.667v88.7041zM286.062 199.575v28.3564h-53.1934v-28.3564h53.1934zM335.753 199.575v28.3564h-28.3564
v-28.3564h28.3564zM183.195 327.304v-78.0371h152.557v78.0371h-51.4502h-49.6729h-51.4336zM183.195 227.932v-28.3564h28.3398v28.3564h-28.3398z" />
    <glyph glyph-name="uniF106" unicode="&#xf106;" 
d="M511.985 236.601c0.204102 -4.67871 -1.63672 -13.5459 -16.2627 -20.3652l-25.6455 -11.958c6.45312 -3.85254 9.49219 -11.8711 6.8291 -19.1885l-21.8975 -60.1621c-1.45996 -4.01172 -4.39551 -7.2168 -8.2666 -9.02148
c-2.14941 -1.00195 -4.44434 -1.50586 -6.74707 -1.50586c-1.84473 0 -3.69531 0.323242 -5.48047 0.972656l-15.8018 5.75098c-7.31641 -11.9307 -20.3828 -19.0791 -34.1338 -19.0801c-4.53418 0 -9.13965 0.777344 -13.6406 2.41504l-137.703 50.0615
c-7.58594 -12.8232 -20.3662 -21.0342 -34.4297 -23.0088l-24.5732 -67.5137c-8.02734 -22.0684 -29.2012 -36.8965 -52.6895 -36.8965h-73.543v-24c0 -13.2324 -10.7656 -24 -24 -24h-16c-4.41797 0 -8 3.58203 -8 8v128c0 4.41797 3.58203 8 8 8h16
c13.2344 0 24 -10.7666 24 -24v-24h73.543c3.38086 0 6.42871 2.13379 7.58398 5.30762l25.1016 68.9629c-8.12988 10.2949 -11.8643 23.752 -9.62598 37.3721l-117.836 42.8389c-20.7285 7.54492 -31.4521 30.543 -23.9092 51.2695l24.623 67.6533
c0.000976562 0.00195312 0.00195312 0.00488281 0.00195312 0.00488281l10.9443 30.0693c7.54395 20.7256 30.5439 31.4482 51.2695 23.9072l404.312 -147.014c15.165 -5.51855 17.7725 -14.1924 17.9766 -18.8721zM32 3.10059v96c0 4.41113 -3.58887 8 -8 8h-8v-112h8
c4.41113 0 8 3.58984 8 8zM159.197 69.4678l22.8115 62.6748c-2.15039 0.46582 -4.29785 1.07812 -6.42578 1.85352c-2.99805 1.09082 -5.82129 2.4502 -8.45605 4.0332l-22.9648 -63.0947c-3.44824 -9.4707 -12.5371 -15.834 -22.6191 -15.834h-73.543v-16h73.543
c16.7852 0 31.917 10.5967 37.6543 26.3672zM193.104 147.083c9.7041 0.298828 18.8525 5.02344 24.6963 13.0488l-57.7578 20.998c-0.603516 -8.94141 2.58594 -17.5566 8.54395 -23.9033c0.353516 -0.300781 0.675781 -0.628906 0.966797 -0.982422
c3.17773 -3.10352 7.05566 -5.59375 11.502 -7.21289c3.79883 -1.38281 7.68652 -2.00879 11.4961 -1.95801c0.18457 0.0107422 0.368164 0.0107422 0.552734 0.00976562zM461.873 190.561l-11.9238 4.3291l-4.24902 -1.98047l-20.7559 -57.0273l15.0459 -5.47559z
M488.963 230.736c4.9541 2.31055 6.67578 4.41602 6.99805 5.16602c-0.385742 0.717773 -2.28613 2.66602 -7.42188 4.53418l-404.313 147.015c-12.4375 4.5293 -26.2363 -1.9082 -30.7637 -14.3438l-8.20703 -22.5498
c0 -0.000976562 -0.000976562 -0.00292969 -0.000976562 -0.00292969l-2.73828 -7.52246c-4.52246 -12.4355 1.91211 -26.2314 14.3467 -30.7568l7.51855 -2.73633c4.15234 -1.51074 6.29297 -6.10254 4.78223 -10.2529
c-1.51074 -4.15234 -6.10547 -6.29395 -10.2529 -4.78223l-7.52051 2.73633c-8.45605 3.07812 -15.2451 8.72852 -19.8096 15.7471l-13.6885 -37.6084c-4.52539 -12.4355 1.9082 -26.2354 14.3447 -30.7607l344.175 -125.123
c12.4375 -4.52734 26.2383 1.90723 30.7637 14.3428l18.1621 49.9014c-9.35645 -3.32129 -20.6631 -5.03613 -31.7363 -5.03613c-10.1279 0 -20.0527 1.42676 -28.1045 4.35742l-231.405 84.0791c-4.15234 1.51074 -6.2959 6.09961 -4.78711 10.252
c1.50977 4.15234 6.10059 6.29395 10.251 4.78711l231.409 -84.0811c14.6152 -5.31836 38.8662 -4.26074 52.958 2.31055l12.0078 5.59863c0.00390625 0.00195312 0.00683594 0.00292969 0.0117188 0.00488281l10.2412 4.77637
c0.00390625 0.00195312 0.00878906 0.00390625 0.0136719 0.00585938zM109.485 293.122c4.15137 -1.51172 6.29297 -6.10352 4.78027 -10.2529c-1.18262 -3.24805 -4.25 -5.2666 -7.51758 -5.2666c-0.90918 0 -1.83301 0.155273 -2.73633 0.484375l-15.0371 5.47363
c-4.15137 1.5127 -6.29199 6.10352 -4.78027 10.2549c1.51172 4.15039 6.10254 6.29395 10.2539 4.78027z" />
    <glyph glyph-name="uniF100" unicode="&#xf100;" 
d="M490.667 0c5.86621 0 10.666 -4.7998 10.666 -10.667v-42.667c0 -5.86719 -4.7998 -10.667 -10.667 -10.667h-469.333c-5.86719 0 -10.667 4.7998 -10.667 10.667v42.667c0 5.86719 4.7998 10.667 10.667 10.667h10.667v437.333c0 5.86719 4.7998 10.667 10.667 10.667
h426.666c5.86719 0 10.667 -4.7998 10.667 -10.667v-437.333h10.667zM53.333 426.667v-426.667h21.333v394.667c0 5.86719 4.7998 10.667 10.667 10.667h341.333c5.86719 0 10.667 -4.7998 10.667 -10.667v-394.667h21.333v426.667h-405.333zM266.667 202.667h149.333
v181.333h-149.333v-181.333zM416 181.333h-149.333v-181.333h149.333v181.333zM96 202.667h149.333v181.333h-149.333v-181.333zM245.333 181.333h-149.333v-181.333h149.333v181.333zM480 -42.667v21.333h-448v-21.333h448z" />
    <glyph glyph-name="uniF105" unicode="&#xf105;" 
d="M504.176 238.104c5.04785 -6.05566 7.82422 -14.0156 7.83203 -22.4072v-47.1123c0 -8.3916 -2.78418 -16.3438 -7.82422 -22.4004c-5.32715 -6.37598 -12.8154 -10.04 -20.5518 -10.04h-11.6318v-9.3916c0 -16.8799 -14.6562 -30.6084 -32.6641 -30.6084h-15.3359
v-17.3359c0 -8.15137 -3.48047 -16.1113 -9.53613 -21.8398c-6.02344 -5.6875 -14 -8.82422 -22.4639 -8.82422s-16.4404 3.13672 -22.4639 8.82422c-6.05566 5.7207 -9.53613 13.6807 -9.53613 21.8398v81.3359h-208v-81.3359
c0 -8.15137 -3.47168 -16.1113 -9.53613 -21.8398c-6.02344 -5.6875 -14 -8.82422 -22.4639 -8.82422s-16.4404 3.13672 -22.4639 8.82422c-6.05566 5.7207 -9.53613 13.6807 -9.53613 21.8398v17.3359h-17.2002c-8.08789 0 -15.7354 2.9209 -21.5273 8.2168
c-5.89648 5.41602 -9.27246 12.9512 -9.27246 20.6797v11.1035h-11.5195c-7.76855 0 -15.2881 3.67285 -20.624 10.0801c-5.06445 6.08008 -7.85645 14.0723 -7.85645 22.4961v46.8486c0 8.42383 2.79199 16.416 7.84766 22.4961
c5.33594 6.40723 12.8564 10.0791 20.6328 10.0791h11.5195v11.1045c0 7.72754 3.37598 15.2637 9.25586 20.6641c5.80859 5.30371 13.4561 8.22363 21.5439 8.22363h17.2002v17.3359c0 8.16016 3.48047 16.1201 9.54395 21.8486c12.0479 11.3838 32.8721 11.3838 44.9199 0
c6.06445 -5.72852 9.53613 -13.6885 9.53613 -21.8486v-81.3359h208v81.3359c0 8.16016 3.48047 16.1201 9.54395 21.8564c12.0479 11.3838 32.8721 11.3838 44.9199 0c6.05566 -5.72852 9.53613 -13.6885 9.53613 -21.8477v-17.3369h15.3359
c18.0078 0 32.6641 -13.7354 32.6641 -30.6074v-9.39258h11.6318c7.73633 0 15.2246 -3.65527 20.5439 -10.04zM28.4805 152.144h11.5195v80h-11.5195c-3.04883 0 -6.00879 -1.53516 -8.32812 -4.31934c-2.64062 -3.16797 -4.15234 -7.63184 -4.15234 -12.2559v-46.8486
c0 -4.62402 1.51172 -9.0957 4.15234 -12.2559c2.31934 -2.78418 5.2793 -4.32031 8.32812 -4.32031zM70.7998 112.144h17.2002v160h-17.2002c-4.02344 0 -7.92773 -1.46387 -10.7275 -4.01562c-2.62402 -2.4082 -4.07227 -5.56836 -4.07227 -8.87988v-19.1045v-96v-19.1035
c0 -3.3125 1.44824 -6.46387 4.08789 -8.8877c2.77637 -2.54395 6.68848 -4.00879 10.7119 -4.00879zM136 78.8076v89.3281v48v89.3359c0 3.83203 -1.6084 7.46387 -4.51953 10.2168c-3 2.83105 -7.18457 4.45508 -11.4805 4.45508s-8.48047 -1.62402 -11.4805 -4.45508
c-2.91113 -2.75293 -4.51953 -6.37695 -4.51953 -10.208v-25.3369v-176v-25.3359c0 -3.82324 1.6084 -7.45605 4.52832 -10.208c6 -5.66406 16.9521 -5.66406 22.9521 0c2.91113 2.75195 4.51953 6.37598 4.51953 10.208zM152 176.144h208v32h-208v-32zM408 78.8076v25.3281
v176v25.3359c0 3.83203 -1.6084 7.46387 -4.51953 10.208c-3 2.83203 -7.18457 4.45605 -11.4805 4.45605s-8.48047 -1.62402 -11.4805 -4.45605c-2.91113 -2.75195 -4.51953 -6.37598 -4.51953 -10.208v-89.3281v-48v-89.3359c0 -3.82324 1.6084 -7.45605 4.52832 -10.208
c6 -5.66406 16.9521 -5.66406 22.9521 0c2.91113 2.75195 4.51953 6.37598 4.51953 10.208zM456 126.752v17.3916v96v17.3926c0 8.05566 -7.48047 14.6074 -16.6641 14.6074h-15.3359v-160h15.3359c9.19238 0 16.6641 6.55273 16.6641 14.6084zM496 168.592v47.1045
c0 4.5918 -1.49609 9.02344 -4.1123 12.1602c-2.30371 2.76758 -5.23926 4.28711 -8.25586 4.28711h-11.6318v-80h11.6318c3.0166 0 5.95215 1.52051 8.25586 4.28809c2.6084 3.14453 4.1123 7.56836 4.1123 12.1602z" />
    <glyph glyph-name="uniF104" unicode="&#xf104;" 
d="M511.969 59.2061c0.015625 -0.0947266 0.015625 -0.203125 0.03125 -0.296875c0 -0.078125 0 -0.15625 -0.00195312 -0.234375v-32c0 -3.45312 -1.67188 -6.70312 -4.5 -8.70312c-1.81348 -1.29688 -3.98438 -1.96875 -6.17188 -1.96875
c-1.17188 0 -2.35938 0.202148 -3.5 0.59375l-57.8281 20.1094l-57.8438 -20.1094c-2.25 -0.796875 -4.71875 -0.796875 -7 0l-57.8271 20.1094l-57.8291 -20.1094c-2.26562 -0.796875 -4.75 -0.796875 -7 0l-57.8428 20.1094l-57.8125 -20.1094
c-2.28125 -0.78125 -4.75 -0.796875 -7 0l-58.0938 20.1094l-57.5615 -20.1094c-3.26562 -1.1416 -6.875 -0.625 -9.70312 1.375c-2.8125 2 -4.48438 5.25 -4.48438 8.70312v32v0.234375c0 0.09375 0 0.202148 0.015625 0.296875
c0 0.139648 0.0166016 0.264648 0.0166016 0.405273c0.0146484 0.09375 0.03125 0.1875 0.03125 0.28125c0.0302734 0.157227 0.0458984 0.296875 0.0615234 0.438477c0.03125 0.09375 0.03125 0.171875 0.046875 0.25
c0.046875 0.21875 0.0791016 0.453125 0.141602 0.671875l74.6719 298.662c1.18848 4.75 5.45312 8.08691 10.3438 8.08691h341.326c4.90625 0 9.17188 -3.33691 10.3447 -8.08691l74.6885 -298.663c0.046875 -0.21875 0.09375 -0.453125 0.125 -0.671875
c0.0302734 -0.078125 0.0302734 -0.15625 0.046875 -0.234375c0.0146484 -0.15625 0.0458984 -0.296875 0.0615234 -0.453125c0.0146484 -0.0927734 0.0146484 -0.186523 0.03125 -0.28125c0.015625 -0.139648 0.015625 -0.264648 0.015625 -0.405273zM486.187 75.2207
l-20.4834 81.9697l-45.1094 15.9355l-43.5938 -15.0752l10.6094 -84.9697l48.8896 16.999c2.26562 0.78125 4.7334 0.78125 7 0zM441.719 253.127l-40.1875 13.7891l-36.5469 -12.8047l9.29688 -74.4297l42.8428 14.8203
c2.28125 0.788086 4.78125 0.78125 7.04785 -0.0234375l35.3281 -12.4775zM418.344 346.666h-64.9375l8.875 -70.8984l35.6885 12.5c2.26562 0.796875 4.71875 0.804688 7 0.0234375l30.5928 -10.5zM266.656 346.665v-70.3281l34.3447 11.9375
c2.25 0.789062 4.71875 0.789062 6.96875 0.0078125l32.6562 -11.2734l-8.71875 69.6562h-65.251zM266.655 253.751v-73.4131l40.7197 14.1553c2.26562 0.789062 4.75 0.789062 7.01562 -0.0078125l38.2188 -13.3672l-9.0459 72.2969l-39.0625 13.5l-37.8457 -13.1641v0z
M266.655 157.753v-84.0781l47.1729 16.4062c2.26562 0.78125 4.73438 0.78125 7.01562 0l45.0938 -15.6885l-10.375 83.0947l-44.7031 15.6387l-44.2041 -15.373v0zM180.078 346.665l-8.70312 -69.6562l32.6416 11.2734c2.26465 0.78125 4.7334 0.78125 6.9834 -0.0078125
l34.3281 -11.9375v70.3281h-65.25zM245.329 157.752l-44.2031 15.373l-44.6875 -15.6699l-10.3906 -83.0625l45.1094 15.6885c2.28125 0.78125 4.75 0.78125 7 0l47.1719 -16.4072v84.0781zM168.422 253.416l-9.04688 -72.3213l38.2178 13.3906
c2.28125 0.796875 4.75 0.796875 7.03125 0.0078125l40.7031 -14.1553v73.4141l-37.8428 13.1641zM93.6572 346.665l-17.2188 -68.875l30.5928 10.5c2.2666 0.782227 4.73438 0.774414 7 -0.0234375l35.6885 -12.5l8.85938 70.8984h-64.9219zM70.2822 253.126
l-17.7812 -71.126l35.3125 12.4775c2.28125 0.803711 4.75 0.811523 7.03125 0.0234375l42.875 -14.7979l9.28125 74.4072l-36.5312 12.8047zM46.2822 157.191l-20.4678 -81.9385l42.4062 14.8281c1.13965 0.390625 2.34277 0.59375 3.53027 0.59375
c1.17285 0 2.34375 -0.203125 3.48438 -0.59375l49.1406 -17.0156l10.625 85.0166l-43.5938 15.0449zM490.654 41.6729v9.40625l-50.6562 17.625l-57.8438 -20.1094c-0.125 -0.046875 -0.21875 -0.078125 -0.34375 -0.109375
c-0.203125 -0.0625 -0.421875 -0.125 -0.625 -0.171875c-0.125 -0.03125 -0.25 -0.0615234 -0.359375 -0.078125c-0.21875 -0.046875 -0.453125 -0.09375 -0.671875 -0.125c-0.0634766 0 -0.110352 -0.0146484 -0.171875 -0.0302734
c-0.0927734 0 -0.1875 -0.0166016 -0.28125 -0.0166016c-0.078125 -0.0146484 -0.171875 -0.0146484 -0.234375 -0.03125c-0.280273 -0.0146484 -0.545898 -0.0302734 -0.811523 -0.0302734c-0.139648 0 -0.28125 0.015625 -0.40625 0.015625
c-0.15625 0.0146484 -0.34375 0.0146484 -0.5 0.03125c-0.186523 0.0146484 -0.374023 0.03125 -0.561523 0.0615234c-0.125 0.0166016 -0.235352 0.03125 -0.344727 0.046875c-0.186523 0.03125 -0.374023 0.078125 -0.561523 0.125
c-0.125 0.03125 -0.235352 0.0478516 -0.34375 0.078125c-0.1875 0.046875 -0.359375 0.109375 -0.53125 0.15625c-0.09375 0.03125 -0.15625 0.046875 -0.25 0.078125l-57.8271 20.1094l-57.8281 -20.1094c-0.0478516 -0.015625 -0.0947266 -0.03125 -0.141602 -0.046875
c-0.157227 -0.046875 -0.3125 -0.09375 -0.46875 -0.141602c-0.171875 -0.046875 -0.328125 -0.0771484 -0.484375 -0.125c-0.155273 -0.03125 -0.311523 -0.0625 -0.453125 -0.09375c-0.202148 -0.0322266 -0.390625 -0.0625 -0.59375 -0.09375
c-0.125 -0.015625 -0.233398 -0.03125 -0.375 -0.046875c-0.328125 -0.03125 -0.65625 -0.046875 -0.983398 -0.046875c-0.344727 0 -0.65625 0.015625 -1 0.046875l-0.375 0.046875c-0.188477 0.0322266 -0.391602 0.0625 -0.594727 0.09375
c-0.140625 0.0322266 -0.282227 0.0634766 -0.4375 0.09375c-0.15625 0.0478516 -0.328125 0.078125 -0.5 0.125c-0.15625 0.0478516 -0.3125 0.0947266 -0.453125 0.141602c-0.046875 0.015625 -0.110352 0.03125 -0.141602 0.046875l-57.8428 20.1094l-57.8125 -20.1094
c-0.09375 -0.03125 -0.171875 -0.046875 -0.25 -0.078125c-0.186523 -0.046875 -0.342773 -0.109375 -0.53125 -0.15625c-0.109375 -0.0302734 -0.21875 -0.046875 -0.34375 -0.078125c-0.186523 -0.046875 -0.374023 -0.09375 -0.561523 -0.125
c-0.109375 -0.015625 -0.219727 -0.0302734 -0.328125 -0.046875c-0.203125 -0.0146484 -0.390625 -0.0458984 -0.578125 -0.0615234c-0.125 -0.0166016 -0.25 -0.0166016 -0.375 -0.0166016c-0.1875 -0.0146484 -0.359375 -0.0302734 -0.53125 -0.0302734
c-0.28125 0 -0.545898 0.0146484 -0.811523 0.0302734c-0.078125 0.0166016 -0.141602 0.0166016 -0.219727 0.0166016c-0.0927734 0.0146484 -0.203125 0.0146484 -0.311523 0.03125c-0.0634766 0.0146484 -0.125977 0.0302734 -0.188477 0.0302734
c-0.203125 0.03125 -0.421875 0.078125 -0.625 0.125c-0.125 0.0166016 -0.25 0.046875 -0.375 0.078125c-0.21875 0.046875 -0.4375 0.110352 -0.640625 0.171875c-0.109375 0.0322266 -0.203125 0.0634766 -0.328125 0.0947266v0.015625l-58.0938 20.1094
l-50.4209 -17.6094v-9.40625l46.8906 16.3916c1.13965 0.390625 2.34277 0.59375 3.53027 0.59375c1.17285 0 2.34375 -0.203125 3.48438 -0.59375l58.0781 -20.125l57.8438 20.125c2.28125 0.780273 4.75 0.780273 7 0l57.8438 -20.1094l57.8271 20.1094
c2.26562 0.780273 4.73438 0.780273 7.01562 0l57.8125 -20.1094l57.8438 20.1094c2.26562 0.780273 4.7334 0.780273 7 0z" />
    <glyph glyph-name="uniF103" unicode="&#xf103;" 
d="M501.342 330.663c5.875 0 10.6562 -4.77246 10.6582 -10.6641v-95.999c0 -5.89062 -4.78125 -10.6641 -10.6562 -10.6641h-32v-234.679c0 -23.5156 -19.1572 -42.6562 -42.6885 -42.6562c-12.7178 0 -24.1543 5.625 -31.999 14.5c-7.81152 -8.875 -19.25 -14.5 -32 -14.5
c-12.7178 0 -24.1553 5.625 -31.999 14.5c-7.81152 -8.875 -19.25 -14.5 -32 -14.5c-12.7188 0 -24.1562 5.625 -31.9922 14.5c-7.82031 -8.875 -19.2578 -14.5 -32 -14.5c-12.7275 0 -24.1719 5.625 -32 14.5c-7.82031 -8.875 -19.2588 -14.5 -32 -14.5
c-12.7275 0 -24.1729 5.625 -32.001 14.5c-7.81934 -8.875 -19.2578 -14.5 -32 -14.5c-23.5225 0 -42.6641 19.1396 -42.6641 42.6562v202.679h-32c-5.89062 0 -10.6641 4.77344 -10.6641 10.6641v21.3359h-10.6719c-5.89062 0 -10.6641 4.77344 -10.6641 10.6641
c0 5.8916 4.77344 10.6641 10.6641 10.6641h10.6719v21.3359c0 5.8916 4.77344 10.6641 10.6641 10.6641h33.3418c4.75 18.3838 21.4854 31.999 41.3203 31.999c12.7422 0 24.1807 -5.6084 32 -14.4912c7.8291 8.88281 19.2744 14.4912 32.001 14.4912
c12.7412 0 24.1797 -5.6084 32 -14.4912c7.8291 8.88281 19.2734 14.4912 32 14.4912c12.7422 0 24.1797 -5.6084 32 -14.4912c7.83594 8.88281 19.2734 14.4912 31.9922 14.4912c12.75 0 24.1875 -5.6084 32 -14.4912c7.84375 8.88281 19.2812 14.4912 31.999 14.4912
c12.75 0 24.1885 -5.6084 32 -14.4912c7.84473 8.88281 19.2812 14.4912 31.999 14.4912c23.5322 0 42.6885 -19.1396 42.6885 -42.6631v-21.3359h21.3125v85.335c0 5.8916 4.78125 10.6641 10.6875 10.6641zM64 202.664v42.6719h-21.3359v-42.6719h21.3359z
M127.999 -21.3428v277.343c0 11.7578 -9.5625 21.3359 -21.3359 21.3359c-11.7578 0 -21.3281 -9.57812 -21.3281 -21.3359v-64v-213.343c0 -11.75 9.57129 -21.3125 21.3281 -21.3125c11.7734 0 21.3359 9.5625 21.3359 21.3125zM192 -21.3428v277.343
c0 11.7578 -9.56348 21.3359 -21.3359 21.3359c-11.7588 0 -21.3281 -9.57812 -21.3281 -21.3359v-277.343c0 -11.75 9.57031 -21.3125 21.3281 -21.3125c11.7725 0 21.335 9.5625 21.3359 21.3125zM255.999 -21.3428v277.343c0 11.7578 -9.56348 21.3359 -21.3359 21.3359
c-11.7578 0 -21.3281 -9.57812 -21.3281 -21.3359v-277.343c0 -11.75 9.57129 -21.3125 21.3281 -21.3125c11.7734 0 21.3359 9.5625 21.3359 21.3125zM319.999 -21.3428v277.343c0 11.7578 -9.5625 21.3359 -21.3438 21.3359c-11.75 0 -21.3125 -9.57812 -21.3125 -21.3359
v-277.343c0 -11.75 9.5625 -21.3125 21.3125 -21.3125c11.7822 0 21.3438 9.5625 21.3438 21.3125zM383.998 -21.3428v277.343c0 11.7578 -9.5625 21.3359 -21.3438 21.3359c-11.75 0 -21.3115 -9.57812 -21.3115 -21.3359v-277.343
c0 -11.75 9.5625 -21.3125 21.3115 -21.3125c11.7822 0 21.3438 9.5625 21.3438 21.3125zM447.998 -21.3428v277.343c0 11.7578 -9.56348 21.3359 -21.3447 21.3359c-11.75 0 -21.3115 -9.57812 -21.3115 -21.3359v-277.343c0 -11.75 9.5625 -21.3125 21.3115 -21.3125
c11.7822 0 21.3447 9.5625 21.3447 21.3125zM356.872 344.327c1.09473 -3.88281 3.40723 -6.9375 3.43848 -6.96875c1.46875 -1.82812 2.34375 -4.15625 2.34375 -6.69531c0 -5.89062 -4.76465 -10.6641 -10.6562 -10.6641c-3.3584 0 -6.34277 1.55566 -8.31152 3.97754
v-0.0078125c-0.5 0.632812 -5 6.36719 -7.32812 14.4688c-3.4375 11.9531 -0.546875 23.3203 8.07812 31.998c3.1875 3.17969 3.98438 6.39941 2.71875 10.7666c-1.09375 3.71777 -3.34375 6.63281 -3.375 6.65527c-1.53223 1.84473 -2.4375 4.21973 -2.4375 6.80566
c0 5.89062 4.76465 10.6719 10.6543 10.6719c3.31348 0 6.25 -1.50781 8.21973 -3.86719v-0.0146484s0 -0.00878906 0.0302734 -0.00878906c0.563477 -0.702148 5.06348 -6.31152 7.375 -14.25c3.46973 -11.8271 0.594727 -23.1162 -8.06152 -31.8115
c-3.18848 -3.21094 -4 -6.5166 -2.68848 -11.0557zM268.657 351.39c2.03906 -8.20312 6.4834 -14.25 6.53125 -14.3125c1.34375 -1.78027 2.15527 -4 2.15527 -6.41406c0 -5.89062 -4.78125 -10.6641 -10.6797 -10.6641c-3.46094 0 -6.53223 1.64941 -8.47754 4.21973
l-0.015625 -0.0166016c-0.678711 0.90625 -6.81152 9.19531 -9.98438 21.1338c-4.53125 17.0303 -0.90625 32.8359 10.4834 45.7266c6.5 7.35156 8.46875 15.7109 6.01562 25.5381c-2.05469 8.21094 -6.5 14.2588 -6.54688 14.3203h0.0166016
c-1.35156 1.78125 -2.15625 4 -2.15625 6.41406c0 5.89062 4.77344 10.6641 10.666 10.6641c3.46875 0 6.52344 -1.66406 8.49219 -4.21875v0.015625c0.6875 -0.90625 6.81152 -9.19531 10 -21.1328c4.53125 -17.0312 0.90625 -32.835 -10.5 -45.7266
c-6.49219 -7.35156 -8.46094 -15.7109 -6 -25.5469zM189.641 337.358h-0.0078125c1.47559 -1.82812 2.36719 -4.15625 2.36719 -6.69531c0 -5.89062 -4.77344 -10.6641 -10.6641 -10.6641c-3.36035 0 -6.34473 1.55566 -8.30566 3.97754v-0.0078125
c-0.507812 0.632812 -5.00781 6.36719 -7.33594 14.4688c-3.4375 11.9531 -0.5625 23.3203 8.07715 31.998c3.17188 3.17969 3.98438 6.39941 2.70312 10.7666c-1.08594 3.71777 -3.33594 6.63281 -3.35938 6.65527c-1.53027 1.84473 -2.45215 4.21973 -2.45215 6.80566
c0 5.89062 4.78027 10.6719 10.6719 10.6719c3.30469 0 6.25 -1.50781 8.21094 -3.86719v0.0078125l0.0078125 -0.0224609c0.0078125 0 0.0078125 -0.00878906 0.0078125 -0.00878906c0.602539 -0.71875 5.07129 -6.31152 7.3916 -14.25
c3.46094 -11.8271 0.601562 -23.1162 -8.0625 -31.8115c-3.19531 -3.21094 -4 -6.5166 -2.69531 -11.0557c1.11719 -3.88281 3.42285 -6.9375 3.44531 -6.96875z" />
  </font>
</defs></svg>
